{
    "routes": [
      {
        "route": "/billeder",
        "serve": "http://billeder.kragefolket.dk",
        "statusCode": 301
      },
      {
        "route": "/filer",
        "serve": "http://filer.kragefolket.dk/?aId=182",
        "statusCode": 301
      }
    ],
    "platformErrorOverrides": [
      {
        "errorType": "NotFound",
        "serve": "/404.html"
      }
    ],
    "defaultHeaders": {
      "content-security-policy": "default-src 'self' unpkg.com gitlab.com; require-sri-for script style; form-action 'none'; frame-ancestors 'none'; report-uri https://kragefolket.report-uri.com/r/d/csp/enforce"
    }
  }