{
  "title": "Familiespejder",
  "ages": "2,5 - 6 år",
  "time": "To gange om måneden med start i august. Se Kragekaldet for flere informationer.",
  "kontingent": "Kr. 295,- pr. ½ år - inkl. gratis juleweekend.",
  "contact": "Jesper Balle, tlf. 2683 7131\n\nE-mail: familiespejder@kragefolket.dk",
  "logo": "/media/familiespejder-web.png",
  "weight": 2,
  "body": "Er du mellem 2,5 og 6 år gammel? Og kunne du tænke dig at starte til spejder i Hellerup? Så er Musene lige noget for dig!\n\nVi mødes typisk søndag formiddagsmøderne, hvor vi mødes i to til tre timer i tidsrummet 10 til 12. Tid og sted varierer for møderne, alt efter hvad vi skal lave, så det vil I få nærmere besked om på mail og i vores Facebook-gruppe for enheden."
}