{
  "title": "Spejdertroppen",
  "ages": "6. klasse til 18 år",
  "time": "Tirsdage kl. 19.00 - 21.00",
  "kontingent": "Kr. 650,- pr. ½ år - inkl. gratis juleweekend.",
  "contact": "Jesper Balle, tlf. 2683 7131, e-mail: trop@kragefolket.dk",
  "logo": "/media/enheder/trop.png",
  "weight": 6
}